<?xml version="1.0" encoding="UTF-8" standalone="no"?>
<svg xmlns:dc="http://purl.org/dc/elements/1.1/" xmlns:cc="http://creativecommons.org/ns#" xmlns:rdf="http://www.w3.org/1999/02/22-rdf-syntax-ns#" xmlns:svg="http://www.w3.org/2000/svg" xmlns="http://www.w3.org/2000/svg" xmlns:sodipodi="http://sodipodi.sourceforge.net/DTD/sodipodi-0.dtd" xmlns:inkscape="http://www.inkscape.org/namespaces/inkscape" inkscape:version="1.0 (4035a4fb49, 2020-05-01)" id="svg1982" version="1.1" viewBox="0 0 83.910706 83.910705" height="83.910706mm" width="83.910706mm">
  <title id="title822">Linux tux logo</title>
  <defs id="defs1976"/>
  <sodipodi:namedview inkscape:window-maximized="1" inkscape:window-y="-8" inkscape:window-x="-8" inkscape:window-height="1017" inkscape:window-width="1920" fit-margin-bottom="0" fit-margin-right="0" fit-margin-left="0" fit-margin-top="0" showgrid="false" inkscape:document-rotation="0" inkscape:current-layer="layer1" inkscape:document-units="mm" inkscape:cy="298.5714" inkscape:cx="89.285698" inkscape:zoom="0.7" inkscape:pageshadow="2" inkscape:pageopacity="0.0" borderopacity="1.0" bordercolor="#666666" pagecolor="#ffffff" id="base" lock-margins="true"/>
  <metadata id="metadata1979">
    <rdf:RDF>
      <cc:Work rdf:about="">
        <dc:format>image/svg+xml</dc:format>
        <dc:type rdf:resource="http://purl.org/dc/dcmitype/StillImage"/>
        <dc:title>Linux tux logo</dc:title>
        <cc:license rdf:resource="http://creativecommons.org/publicdomain/zero/1.0/"/>
        <dc:date>2020</dc:date>
        <dc:creator>
          <cc:Agent>
            <dc:title>Italian Linux Society</dc:title>
          </cc:Agent>
        </dc:creator>
        <dc:contributor>
          <cc:Agent>
            <dc:title>Created by Roberto Guido (Italian Linux Society), edited by Virginia Foti</dc:title>
          </cc:Agent>
        </dc:contributor>
        <dc:source>https://gitlab.com/ItalianLinuxSociety/Materiali/-/blob/master/images/logo/italian_linux_society_penguin_circle_logo.svg</dc:source>
      </cc:Work>
      <cc:License rdf:about="http://creativecommons.org/publicdomain/zero/1.0/">
        <cc:permits rdf:resource="http://creativecommons.org/ns#Reproduction"/>
        <cc:permits rdf:resource="http://creativecommons.org/ns#Distribution"/>
        <cc:permits rdf:resource="http://creativecommons.org/ns#DerivativeWorks"/>
      </cc:License>
    </rdf:RDF>
  </metadata>
  <g transform="translate(-13.985123,-8.6934586)" id="layer1" inkscape:groupmode="layer" inkscape:label="Livello 1">
    <path style="fill:#000000;stroke-width:0.247584;stroke-linecap:round;stroke-linejoin:round;stroke-opacity:0;paint-order:markers fill stroke;stop-color:#000000" id="path850" sodipodi:type="arc" sodipodi:cx="55.940475" sodipodi:cy="50.648811" sodipodi:rx="41.955353" sodipodi:ry="41.955353" sodipodi:start="0" sodipodi:end="6.2754186" sodipodi:open="true" sodipodi:arc-type="arc" d="M 97.895828,50.648811 A 41.955353,41.955353 0 0 1 56.021939,92.604085 41.955353,41.955353 0 0 1 13.985439,50.811738 41.955353,41.955353 0 0 1 55.696086,8.6941703 41.955353,41.955353 0 0 1 97.894563,50.32296"/>
    <g id="g858" transform="translate(37.419624,-5.1025243)">
      <path transform="matrix(1.1848266,0,0,1.1638098,-239.40149,-189.6418)" inkscape:transform-center-y="4.7526135" inkscape:randomized="0" inkscape:rounded="0" inkscape:flatsided="false" sodipodi:arg2="2.6179939" sodipodi:arg1="1.5707963" sodipodi:r2="8.5900087" sodipodi:r1="17.180019" sodipodi:cy="222.01678" sodipodi:cx="217.68787" sodipodi:sides="3" id="path1460" style="fill:#ffa200;fill-opacity:1;stroke:#000000;stroke-width:2;stroke-linecap:round;stroke-linejoin:round;stroke-miterlimit:4;stroke-dasharray:none;stroke-opacity:1" sodipodi:type="star" d="m 217.68787,239.1968 -7.43917,-12.88501 -7.43917,-12.88501 14.87834,0 14.87833,-1e-5 -7.43917,12.88502 z"/>
      <g transform="matrix(0.88721616,0,0,0.87147855,-185.48003,-121.15008)" id="g1470">
        <circle r="15.404826" cy="197.01552" cx="224.50641" id="circle1462" style="fill:#ffffff;fill-opacity:1;stroke:#000000;stroke-width:2.56034;stroke-linecap:round;stroke-linejoin:round;stroke-miterlimit:4;stroke-dasharray:none;stroke-opacity:1" transform="matrix(1.0431771,0,0,1.0431771,11.733742,-15.81225)"/>
        <circle r="2.7779195" cy="196.51044" cx="228.04193" id="circle1464" style="fill:#000000;fill-opacity:1;stroke:#000000;stroke-width:2;stroke-linecap:round;stroke-linejoin:round;stroke-miterlimit:4;stroke-dasharray:none;stroke-opacity:1" transform="matrix(1.3354429,0,0,1.3354429,-66.581532,-72.718648)"/>
        <circle r="15.404826" cy="197.01552" cx="224.50641" transform="matrix(-1.0431771,0,0,1.0431771,448.13363,-15.81225)" style="fill:#ffffff;fill-opacity:1;stroke:#000000;stroke-width:2.56034;stroke-linecap:round;stroke-linejoin:round;stroke-miterlimit:4;stroke-dasharray:none;stroke-opacity:1" id="circle1466"/>
        <circle r="2.7779195" cy="196.51044" cx="228.04193" transform="matrix(-1.3354429,0,0,1.3354429,526.4489,-72.718648)" style="fill:#000000;fill-opacity:1;stroke:#000000;stroke-width:2;stroke-linecap:round;stroke-linejoin:round;stroke-miterlimit:4;stroke-dasharray:none;stroke-opacity:1" id="circle1468"/>
      </g>
    </g>
  </g>
</svg>